﻿<?xml version="1.0" encoding="utf-8"?>
<?AutomationStudio Version="3.0"?>
<PanelMap xmlns="http://br-automation.co.at/AS/VC/Project">
  <Property Name="Description" Value="Keymapping for PS2-Keyboard" />
  <Property Name="HwFile" Value="PS2-Keyboard.hwx" />
  <Property Name="Name" Value="PS2-Keyboard5" />
  <Property Name="NumLevel" Value="4" />
  <Property Name="Type" Value="PS2-Keyboard" />
  <PanelItems>
    <PanelItem Index="1">
      <KeyLevels />
    </PanelItem>
    <PanelItem Index="2">
      <KeyLevels />
    </PanelItem>
    <PanelItem Index="3">
      <KeyLevels />
    </PanelItem>
    <PanelItem Index="4">
      <KeyLevels />
    </PanelItem>
    <PanelItem Index="5">
      <KeyLevels />
    </PanelItem>
    <PanelItem Index="6">
      <KeyLevels />
    </PanelItem>
    <PanelItem Index="7">
      <KeyLevels />
    </PanelItem>
    <PanelItem Index="8">
      <KeyLevels />
    </PanelItem>
    <PanelItem Index="9">
      <KeyLevels />
    </PanelItem>
    <PanelItem Index="10">
      <KeyLevels />
    </PanelItem>
    <PanelItem Index="11">
      <KeyLevels />
    </PanelItem>
    <PanelItem Index="12">
      <KeyLevels />
    </PanelItem>
    <PanelItem Index="13">
      <KeyLevels />
    </PanelItem>
    <PanelItem Index="14">
      <KeyLevels />
    </PanelItem>
    <PanelItem Index="15">
      <KeyLevels />
    </PanelItem>
    <PanelItem Index="16">
      <KeyLevels />
    </PanelItem>
    <PanelItem Index="17">
      <KeyLevels />
    </PanelItem>
    <PanelItem Index="18">
      <KeyLevels />
    </PanelItem>
    <PanelItem Index="19">
      <KeyLevels />
    </PanelItem>
    <PanelItem Index="20">
      <KeyLevels />
    </PanelItem>
    <PanelItem Index="21">
      <KeyLevels />
    </PanelItem>
    <PanelItem Index="22">
      <KeyLevels />
    </PanelItem>
    <PanelItem Index="23">
      <KeyLevels />
    </PanelItem>
    <PanelItem Index="24">
      <KeyLevels />
    </PanelItem>
    <PanelItem Index="25">
      <KeyLevels />
    </PanelItem>
    <PanelItem Index="26">
      <KeyLevels />
    </PanelItem>
    <PanelItem Index="27">
      <KeyLevels />
    </PanelItem>
    <PanelItem Index="28">
      <KeyLevels />
    </PanelItem>
    <PanelItem Index="29">
      <KeyLevels />
    </PanelItem>
    <PanelItem Index="30">
      <KeyLevels />
    </PanelItem>
    <PanelItem Index="31">
      <KeyLevels />
    </PanelItem>
    <PanelItem Index="32">
      <KeyLevels />
    </PanelItem>
    <PanelItem Index="33">
      <KeyLevels />
    </PanelItem>
    <PanelItem Index="34">
      <KeyLevels />
    </PanelItem>
    <PanelItem Index="35">
      <KeyLevels />
    </PanelItem>
    <PanelItem Index="36">
      <KeyLevels />
    </PanelItem>
    <PanelItem Index="37">
      <KeyLevels />
    </PanelItem>
    <PanelItem Index="38">
      <KeyLevels />
    </PanelItem>
    <PanelItem Index="39">
      <KeyLevels />
    </PanelItem>
    <PanelItem Index="40">
      <KeyLevels />
    </PanelItem>
    <PanelItem Index="41">
      <KeyLevels />
    </PanelItem>
    <PanelItem Index="42">
      <KeyLevels />
    </PanelItem>
    <PanelItem Index="43">
      <KeyLevels />
    </PanelItem>
    <PanelItem Index="44">
      <KeyLevels />
    </PanelItem>
    <PanelItem Index="45">
      <KeyLevels />
    </PanelItem>
    <PanelItem Index="46">
      <KeyLevels />
    </PanelItem>
    <PanelItem Index="47">
      <KeyLevels />
    </PanelItem>
    <PanelItem Index="48">
      <KeyLevels />
    </PanelItem>
    <PanelItem Index="49">
      <KeyLevels />
    </PanelItem>
    <PanelItem Index="50">
      <KeyLevels />
    </PanelItem>
    <PanelItem Index="51">
      <KeyLevels />
    </PanelItem>
    <PanelItem Index="52">
      <KeyLevels />
    </PanelItem>
    <PanelItem Index="53">
      <KeyLevels />
    </PanelItem>
    <PanelItem Index="54">
      <KeyLevels />
    </PanelItem>
    <PanelItem Index="55">
      <KeyLevels />
    </PanelItem>
    <PanelItem Index="56">
      <KeyLevels />
    </PanelItem>
    <PanelItem Index="57">
      <KeyLevels />
    </PanelItem>
    <PanelItem Index="58">
      <KeyLevels />
    </PanelItem>
    <PanelItem Index="59">
      <KeyLevels />
    </PanelItem>
    <PanelItem Index="60">
      <KeyLevels />
    </PanelItem>
    <PanelItem Index="61">
      <KeyLevels />
    </PanelItem>
    <PanelItem Index="62">
      <KeyLevels />
    </PanelItem>
    <PanelItem Index="63">
      <KeyLevels />
    </PanelItem>
    <PanelItem Index="64">
      <KeyLevels />
    </PanelItem>
    <PanelItem Index="65">
      <KeyLevels />
    </PanelItem>
    <PanelItem Index="66">
      <KeyLevels />
    </PanelItem>
    <PanelItem Index="67">
      <KeyLevels />
    </PanelItem>
    <PanelItem Index="68">
      <KeyLevels />
    </PanelItem>
    <PanelItem Index="69">
      <KeyLevels />
    </PanelItem>
    <PanelItem Index="70">
      <KeyLevels />
    </PanelItem>
    <PanelItem Index="71">
      <KeyLevels />
    </PanelItem>
    <PanelItem Index="72">
      <KeyLevels />
    </PanelItem>
    <PanelItem Index="73">
      <KeyLevels />
    </PanelItem>
    <PanelItem Index="74">
      <KeyLevels />
    </PanelItem>
    <PanelItem Index="75">
      <KeyLevels />
    </PanelItem>
    <PanelItem Index="76">
      <KeyLevels />
    </PanelItem>
    <PanelItem Index="77">
      <KeyLevels />
    </PanelItem>
    <PanelItem Index="78">
      <KeyLevels />
    </PanelItem>
    <PanelItem Index="79">
      <KeyLevels />
    </PanelItem>
    <PanelItem Index="80">
      <KeyLevels />
    </PanelItem>
    <PanelItem Index="81">
      <KeyLevels />
    </PanelItem>
    <PanelItem Index="82">
      <KeyLevels />
    </PanelItem>
    <PanelItem Index="83">
      <KeyLevels />
    </PanelItem>
    <PanelItem Index="84">
      <KeyLevels />
    </PanelItem>
    <PanelItem Index="85">
      <KeyLevels />
    </PanelItem>
    <PanelItem Index="86">
      <KeyLevels />
    </PanelItem>
    <PanelItem Index="87">
      <KeyLevels />
    </PanelItem>
    <PanelItem Index="88">
      <KeyLevels />
    </PanelItem>
    <PanelItem Index="89">
      <KeyLevels />
    </PanelItem>
    <PanelItem Index="90">
      <KeyLevels />
    </PanelItem>
    <PanelItem Index="91">
      <KeyLevels />
    </PanelItem>
    <PanelItem Index="92">
      <KeyLevels />
    </PanelItem>
    <PanelItem Index="93">
      <KeyLevels />
    </PanelItem>
    <PanelItem Index="94">
      <KeyLevels />
    </PanelItem>
    <PanelItem Index="95">
      <KeyLevels />
    </PanelItem>
    <PanelItem Index="96">
      <KeyLevels />
    </PanelItem>
    <PanelItem Index="97">
      <KeyLevels />
    </PanelItem>
    <PanelItem Index="98">
      <KeyLevels />
    </PanelItem>
    <PanelItem Index="99">
      <KeyLevels />
    </PanelItem>
    <PanelItem Index="100">
      <KeyLevels />
    </PanelItem>
    <PanelItem Index="101">
      <KeyLevels />
    </PanelItem>
    <PanelItem Index="102">
      <KeyLevels />
    </PanelItem>
    <PanelItem Index="103">
      <KeyLevels />
    </PanelItem>
    <PanelItem Index="104">
      <KeyLevels />
    </PanelItem>
    <PanelItem Index="105">
      <KeyLevels />
    </PanelItem>
  </PanelItems>
</PanelMap>